<?xml version="1.0" encoding="UTF-8" standalone="no"?>
<!DOCTYPE svg PUBLIC "-//W3C//DTD SVG 1.1//EN" "http://www.w3.org/Graphics/SVG/1.1/DTD/svg11.dtd">
<svg width="100%" height="100%" viewBox="0 0 256 256" version="1.1" xmlns="http://www.w3.org/2000/svg" xmlns:xlink="http://www.w3.org/1999/xlink" xml:space="preserve" xmlns:serif="http://www.serif.com/" style="fill-rule:evenodd;clip-rule:evenodd;stroke-linejoin:round;stroke-miterlimit:1.41421;">
    <g transform="matrix(9.01278,0,0,9.01278,12.6274,9.04198)">
        <path d="M12.801,24.634C6.84,24.634 8.691,23.483 8.156,22.931L8.492,16.404C8.492,16.404 7.855,16.193 7.719,16.127C6.371,15.533 5.391,13.783 5.391,11.513C5.391,9.041 7.309,6.908 9.168,6.888L9.176,6.888C11.031,6.908 12.953,9.041 12.953,11.513C12.953,13.783 11.973,15.533 10.625,16.127C10.613,16.13 9.844,16.412 9.844,16.412L10.223,23.67C11.051,23.873 11.91,23.994 12.801,23.994C14.004,23.994 15.156,23.791 16.233,23.427L16.57,16.959C15.688,16.763 14.938,16.205 14.465,15.498C13.879,14.627 14.914,6.888 14.914,6.888L15.586,6.888L15.586,14.15L16.254,14.15L16.254,6.888L16.98,6.888L16.98,14.15L17.648,14.15L17.648,6.888L18.402,6.888L18.402,14.15L19.07,14.15L19.07,6.888L19.586,6.888C19.586,6.888 20.617,14.627 20.035,15.502C19.566,16.197 18.824,16.755 17.953,16.955C17.938,16.959 17.926,16.966 17.926,16.966L18.215,22.529C18.232,23.303 18.762,24.634 12.801,24.634Z" style="fill-rule:nonzero;"/>
    </g>
    <g transform="matrix(1.00145,0,0,1.00145,-0.326811,-0.326787)">
        <path d="M128.362,15.648L128.724,15.649L129.086,15.652L129.448,15.656L129.809,15.662L130.17,15.668L130.531,15.675L130.892,15.684L131.252,15.694L131.612,15.704L131.972,15.716L132.332,15.729L132.691,15.744L133.05,15.759L133.409,15.776L133.768,15.793L134.126,15.812L134.484,15.832L134.842,15.853L135.199,15.875L135.557,15.898L135.914,15.923L136.27,15.948L136.627,15.975L136.983,16.002L137.338,16.031L137.694,16.061L138.049,16.092L138.404,16.124L138.759,16.157L139.113,16.192L139.467,16.227L139.821,16.264L140.174,16.301L140.527,16.34L140.88,16.38L141.232,16.421L141.585,16.463L141.936,16.506L142.288,16.55L142.639,16.595L142.99,16.642L143.341,16.689L143.691,16.737L144.041,16.787L144.39,16.838L144.74,16.889L145.088,16.942L145.437,16.996L145.785,17.051L146.133,17.107L146.481,17.164L146.828,17.222L147.175,17.281L147.521,17.342L147.867,17.403L148.213,17.465L148.558,17.529L148.903,17.593L149.248,17.659L149.593,17.726L149.936,17.793L150.28,17.862L150.623,17.932L150.966,18.002L151.309,18.074L151.651,18.147L151.993,18.221L152.334,18.296L152.675,18.372L153.015,18.449L153.356,18.527L153.696,18.606L154.035,18.686L154.374,18.767L154.713,18.849L155.051,18.933L155.389,19.017L155.726,19.102L156.063,19.188L156.4,19.275L156.736,19.364L157.072,19.453L157.408,19.543L157.742,19.635L158.077,19.727L158.411,19.82L158.745,19.915L159.079,20.01L159.411,20.106L159.744,20.203L160.076,20.302L160.408,20.401L160.739,20.501L161.07,20.603L161.4,20.705L161.73,20.808L162.06,20.912L162.389,21.018L162.717,21.124L163.045,21.231L163.373,21.339L163.7,21.448L164.027,21.558L164.354,21.67L164.68,21.782L165.005,21.895L165.33,22.009L165.655,22.124L165.979,22.24L166.303,22.356L166.626,22.474L166.948,22.593L167.271,22.713L167.593,22.834L167.914,22.955L168.235,23.078L168.555,23.201L168.875,23.326L169.194,23.451L169.514,23.578L169.832,23.705L170.15,23.833L170.467,23.963L170.784,24.093L171.101,24.224L171.417,24.356L171.733,24.489L172.047,24.623L172.362,24.758L172.676,24.893L172.99,25.03L173.303,25.168L173.615,25.306L173.928,25.446L174.239,25.586L174.55,25.727L174.861,25.869L175.171,26.013L175.48,26.156L175.789,26.301L176.098,26.447L176.406,26.594L176.713,26.742L177.02,26.89L177.326,27.04L177.632,27.19L177.937,27.341L178.242,27.493L178.547,27.646L178.85,27.8L179.153,27.955L179.456,28.111L179.758,28.267L180.06,28.425L180.361,28.583L180.661,28.742L180.961,28.902L181.261,29.063L181.56,29.225L181.858,29.388L182.156,29.551L182.453,29.716L182.75,29.881L183.046,30.047L183.341,30.214L183.636,30.382L183.931,30.551L184.225,30.72L184.518,30.891L184.811,31.062L185.103,31.234L185.394,31.407L185.686,31.581L185.976,31.756L186.266,31.932L186.555,32.108L186.844,32.286L187.132,32.464L187.419,32.642L187.706,32.822L187.993,33.003L188.279,33.184L188.564,33.367L188.849,33.55L189.133,33.734L189.416,33.918L189.699,34.104L189.981,34.29L190.263,34.478L190.544,34.666L190.824,34.855L191.104,35.044L191.383,35.235L191.662,35.426L191.94,35.618L192.217,35.811L192.494,36.005L192.77,36.2L193.046,36.395L193.321,36.591L193.595,36.788L193.869,36.986L194.142,37.185L194.414,37.384L194.686,37.584L194.958,37.785L195.228,37.987L195.498,38.189L195.767,38.393L196.036,38.597L196.304,38.801L196.571,39.007L196.838,39.214L197.105,39.421L197.37,39.629L197.635,39.838L197.899,40.047L198.162,40.257L198.425,40.469L198.688,40.681L198.949,40.893L199.21,41.107L199.471,41.321L199.73,41.536L199.989,41.751L200.248,41.968L200.505,42.185L200.762,42.403L201.018,42.622L201.274,42.841L201.529,43.061L201.784,43.282L202.037,43.504L202.29,43.727L202.543,43.95L202.794,44.174L203.045,44.398L203.296,44.624L203.545,44.85L203.794,45.077L204.042,45.305L204.29,45.533L204.537,45.762L204.783,45.992L205.028,46.222L205.273,46.454L205.517,46.686L205.761,46.918L206.003,47.152L206.245,47.386L206.487,47.621L206.727,47.856L206.967,48.093L207.207,48.33L207.445,48.568L207.683,48.806L207.92,49.045L208.156,49.285L208.392,49.525L208.627,49.767L208.861,50.009L209.094,50.251L209.327,50.495L209.559,50.739L209.791,50.984L210.021,51.229L210.251,51.475L210.48,51.722L210.708,51.969L210.936,52.218L211.163,52.467L211.39,52.716L211.615,52.967L211.84,53.217L212.063,53.469L212.287,53.721L212.509,53.974L212.731,54.228L212.952,54.482L213.172,54.737L213.392,54.992L213.611,55.249L213.829,55.506L214.046,55.763L214.262,56.022L214.478,56.281L214.693,56.54L214.907,56.801L215.121,57.062L215.333,57.323L215.545,57.585L215.757,57.848L215.967,58.112L216.176,58.376L216.385,58.641L216.593,58.906L216.801,59.172L217.007,59.439L217.213,59.707L217.418,59.974L217.622,60.243L217.825,60.512L218.028,60.782L218.23,61.053L218.431,61.324L218.631,61.596L218.83,61.868L219.029,62.141L219.227,62.415L219.424,62.689L219.62,62.964L219.815,63.24L220.01,63.516L220.204,63.792L220.397,64.07L220.589,64.348L220.78,64.626L220.971,64.906L221.161,65.185L221.35,65.466L221.538,65.747L221.725,66.028L221.911,66.311L222.097,66.593L222.282,66.877L222.466,67.161L222.649,67.445L222.831,67.73L223.013,68.016L223.193,68.303L223.373,68.589L223.552,68.877L223.73,69.165L223.908,69.454L224.084,69.743L224.26,70.033L224.434,70.323L224.608,70.614L224.782,70.906L224.954,71.198L225.125,71.491L225.296,71.784L225.465,72.078L225.634,72.372L225.802,72.667L225.969,72.963L226.135,73.259L226.301,73.555L226.465,73.853L226.629,74.15L226.791,74.448L226.953,74.747L227.114,75.047L227.274,75.347L227.434,75.647L227.592,75.948L227.75,76.25L227.906,76.552L228.062,76.854L228.217,77.158L228.371,77.461L228.524,77.765L228.676,78.07L228.827,78.376L228.977,78.681L229.127,78.988L229.275,79.295L229.423,79.602L229.57,79.91L229.716,80.218L229.861,80.527L230.005,80.837L230.148,81.146L230.29,81.457L230.431,81.768L230.572,82.08L230.711,82.392L230.85,82.704L230.987,83.017L231.124,83.331L231.26,83.645L231.395,83.959L231.529,84.274L231.661,84.59L231.794,84.906L231.925,85.222L232.055,85.54L232.184,85.856L232.313,86.175L232.44,86.493L232.566,86.812L232.692,87.132L232.816,87.451L232.94,87.771L233.063,88.092L233.184,88.414L233.305,88.736L233.425,89.058L233.544,89.38L233.662,89.704L233.778,90.027L233.895,90.351L234.01,90.676L234.124,91.001L234.237,91.326L234.349,91.652L234.46,91.978L234.57,92.305L234.679,92.633L234.787,92.96L234.894,93.288L235.001,93.617L235.106,93.946L235.21,94.276L235.313,94.605L235.416,94.936L235.517,95.267L235.617,95.598L235.717,95.929L235.815,96.261L235.912,96.594L236.009,96.927L236.104,97.26L236.198,97.593L236.292,97.928L236.384,98.263L236.475,98.597L236.566,98.933L236.655,99.269L236.743,99.605L236.831,99.942L236.917,100.278L237.002,100.616L237.086,100.954L237.169,101.292L237.252,101.631L237.333,101.97L237.413,102.309L237.492,102.649L237.57,102.989L237.647,103.329L237.723,103.671L237.798,104.012L237.872,104.354L237.945,104.696L238.017,105.038L238.088,105.381L238.157,105.724L238.226,106.067L238.294,106.412L238.36,106.756L238.426,107.101L238.49,107.446L238.554,107.791L238.616,108.137L238.677,108.483L238.738,108.829L238.797,109.176L238.855,109.523L238.912,109.871L238.968,110.218L239.023,110.567L239.077,110.915L239.13,111.264L239.182,111.613L239.232,111.962L239.282,112.313L239.33,112.663L239.378,113.013L239.424,113.364L239.469,113.715L239.514,114.067L239.557,114.419L239.599,114.771L239.64,115.123L239.68,115.476L239.718,115.829L239.756,116.182L239.792,116.536L239.828,116.89L239.862,117.245L239.895,117.599L239.928,117.954L239.959,118.309L239.988,118.664L240.017,119.02L240.045,119.376L240.072,119.732L240.097,120.089L240.121,120.446L240.145,120.803L240.167,121.16L240.188,121.519L240.208,121.876L240.226,122.234L240.244,122.593L240.261,122.952L240.276,123.311L240.29,123.67L240.303,124.03L240.315,124.389L240.326,124.75L240.336,125.11L240.344,125.471L240.352,125.832L240.358,126.193L240.363,126.554L240.367,126.915L240.37,127.278L240.372,127.639L240.373,128.002L240.372,128.364L240.37,128.726L240.367,129.088L240.363,129.449L240.358,129.811L240.352,130.172L240.344,130.533L240.336,130.893L240.326,131.254L240.315,131.614L240.303,131.973L240.29,132.333L240.276,132.693L240.261,133.051L240.244,133.411L240.226,133.769L240.208,134.127L240.188,134.485L240.167,134.843L240.145,135.2L240.121,135.558L240.097,135.914L240.072,136.271L240.045,136.628L240.017,136.983L239.988,137.339L239.959,137.694L239.928,138.05L239.895,138.404L239.862,138.759L239.828,139.113L239.792,139.467L239.756,139.821L239.718,140.175L239.68,140.527L239.64,140.88L239.599,141.233L239.557,141.585L239.514,141.937L239.469,142.288L239.424,142.639L239.378,142.99L239.33,143.34L239.282,143.691L239.232,144.041L239.182,144.39L239.13,144.739L239.077,145.088L239.023,145.436L238.968,145.785L238.912,146.133L238.855,146.48L238.797,146.827L238.738,147.174L238.677,147.521L238.616,147.867L238.554,148.212L238.49,148.558L238.426,148.903L238.36,149.247L238.294,149.592L238.226,149.936L238.157,150.279L238.088,150.622L238.017,150.966L237.945,151.308L237.872,151.65L237.798,151.992L237.723,152.333L237.647,152.674L237.57,153.015L237.492,153.354L237.413,153.694L237.333,154.034L237.252,154.373L237.169,154.712L237.086,155.05L237.002,155.387L236.917,155.725L236.831,156.062L236.743,156.398L236.655,156.735L236.566,157.07L236.475,157.406L236.384,157.741L236.292,158.075L236.198,158.41L236.104,158.743L236.009,159.076L235.912,159.41L235.815,159.742L235.717,160.074L235.617,160.405L235.517,160.737L235.416,161.068L235.313,161.398L235.21,161.728L235.106,162.057L235.001,162.386L234.894,162.715L234.787,163.043L234.679,163.371L234.57,163.698L234.46,164.025L234.349,164.351L234.236,164.677L234.124,165.003L234.01,165.327L233.895,165.652L233.778,165.976L233.662,166.3L233.544,166.623L233.425,166.946L233.305,167.268L233.184,167.589L233.063,167.911L232.94,168.232L232.816,168.552L232.692,168.872L232.566,169.192L232.44,169.51L232.313,169.829L232.184,170.147L232.055,170.464L231.925,170.781L231.794,171.098L231.661,171.414L231.529,171.729L231.395,172.044L231.26,172.359L231.124,172.672L230.987,172.986L230.85,173.299L230.711,173.612L230.572,173.924L230.431,174.235L230.29,174.546L230.148,174.857L230.005,175.166L229.861,175.476L229.716,175.785L229.57,176.093L229.423,176.402L229.275,176.709L229.127,177.015L228.977,177.322L228.827,177.628L228.676,177.933L228.524,178.238L228.37,178.542L228.217,178.846L228.062,179.149L227.906,179.452L227.75,179.753L227.592,180.055L227.434,180.356L227.274,180.657L227.114,180.957L226.953,181.256L226.791,181.555L226.629,181.853L226.465,182.151L226.301,182.448L226.135,182.745L225.969,183.041L225.802,183.336L225.634,183.631L225.465,183.926L225.296,184.219L225.125,184.513L224.953,184.806L224.782,185.097L224.608,185.389L224.434,185.68L224.26,185.97L224.084,186.26L223.908,186.549L223.73,186.838L223.552,187.126L223.373,187.414L223.193,187.701L223.013,187.987L222.831,188.273L222.649,188.558L222.466,188.843L222.282,189.127L222.097,189.41L221.911,189.693L221.725,189.975L221.538,190.256L221.349,190.538L221.161,190.818L220.971,191.098L220.78,191.377L220.589,191.656L220.397,191.934L220.204,192.211L220.01,192.488L219.815,192.764L219.62,193.039L219.423,193.314L219.227,193.589L219.029,193.862L218.83,194.135L218.631,194.408L218.431,194.679L218.23,194.951L218.028,195.221L217.825,195.491L217.622,195.761L217.418,196.029L217.213,196.297L217.007,196.565L216.801,196.831L216.593,197.097L216.385,197.363L216.176,197.627L215.967,197.892L215.757,198.155L215.545,198.418L215.333,198.68L215.121,198.942L214.907,199.202L214.693,199.463L214.478,199.722L214.262,199.982L214.046,200.24L213.829,200.497L213.611,200.754L213.392,201.011L213.172,201.266L212.952,201.521L212.731,201.776L212.509,202.029L212.287,202.282L212.063,202.535L211.839,202.786L211.615,203.037L211.39,203.287L211.163,203.537L210.936,203.786L210.708,204.034L210.48,204.281L210.251,204.528L210.021,204.774L209.791,205.02L209.559,205.264L209.327,205.508L209.094,205.752L208.861,205.995L208.627,206.236L208.392,206.478L208.156,206.718L207.92,206.958L207.683,207.197L207.445,207.436L207.206,207.673L206.967,207.911L206.727,208.147L206.487,208.382L206.245,208.617L206.003,208.851L205.761,209.085L205.517,209.318L205.273,209.55L205.028,209.781L204.783,210.011L204.537,210.241L204.29,210.471L204.042,210.699L203.794,210.926L203.545,211.153L203.295,211.38L203.045,211.605L202.794,211.83L202.543,212.054L202.29,212.277L202.037,212.499L201.784,212.721L201.529,212.942L201.274,213.162L201.019,213.382L200.762,213.6L200.505,213.818L200.247,214.036L199.989,214.252L199.73,214.467L199.471,214.683L199.21,214.897L198.95,215.11L198.688,215.323L198.425,215.535L198.162,215.746L197.899,215.956L197.635,216.166L197.37,216.374L197.105,216.582L196.838,216.79L196.571,216.996L196.304,217.202L196.036,217.407L195.768,217.611L195.498,217.814L195.228,218.017L194.957,218.218L194.686,218.42L194.414,218.62L194.142,218.819L193.869,219.017L193.595,219.215L193.321,219.412L193.046,219.608L192.77,219.804L192.494,219.998L192.217,220.192L191.94,220.385L191.662,220.577L191.383,220.768L191.104,220.959L190.824,221.149L190.544,221.337L190.263,221.526L189.981,221.713L189.699,221.899L189.416,222.085L189.132,222.27L188.849,222.454L188.564,222.637L188.279,222.819L187.993,223L187.706,223.181L187.419,223.361L187.132,223.54L186.844,223.718L186.555,223.895L186.266,224.072L185.976,224.247L185.686,224.422L185.394,224.596L185.103,224.769L184.811,224.941L184.518,225.112L184.225,225.283L183.931,225.453L183.636,225.621L183.342,225.789L183.046,225.956L182.75,226.122L182.453,226.288L182.156,226.452L181.858,226.616L181.56,226.778L181.261,226.94L180.961,227.101L180.662,227.261L180.361,227.42L180.06,227.579L179.759,227.736L179.456,227.893L179.153,228.048L178.85,228.203L178.546,228.357L178.242,228.51L177.938,228.662L177.632,228.813L177.326,228.964L177.02,229.113L176.713,229.262L176.406,229.409L176.097,229.556L175.789,229.702L175.48,229.847L175.171,229.991L174.861,230.134L174.55,230.276L174.239,230.417L173.927,230.558L173.616,230.697L173.303,230.836L172.99,230.973L172.676,231.11L172.362,231.246L172.048,231.38L171.732,231.514L171.417,231.647L171.101,231.779L170.784,231.911L170.467,232.041L170.15,232.17L169.832,232.298L169.514,232.425L169.194,232.552L168.875,232.678L168.555,232.802L168.235,232.925L167.914,233.048L167.593,233.17L167.271,233.291L166.948,233.41L166.626,233.529L166.303,233.647L165.979,233.764L165.655,233.88L165.33,233.995L165.005,234.109L164.68,234.222L164.354,234.334L164.027,234.445L163.7,234.555L163.373,234.664L163.046,234.772L162.718,234.879L162.389,234.986L162.059,235.091L161.73,235.195L161.4,235.298L161.07,235.401L160.739,235.502L160.407,235.602L160.076,235.702L159.744,235.8L159.411,235.897L159.078,235.994L158.745,236.089L158.411,236.183L158.077,236.276L157.742,236.369L157.408,236.46L157.072,236.55L156.736,236.64L156.4,236.728L156.063,236.815L155.726,236.901L155.388,236.987L155.051,237.071L154.713,237.154L154.374,237.236L154.035,237.317L153.695,237.397L153.356,237.476L153.016,237.554L152.675,237.631L152.334,237.707L151.992,237.782L151.651,237.856L151.309,237.929L150.967,238.001L150.624,238.072L150.28,238.141L149.936,238.21L149.593,238.278L149.248,238.344L148.904,238.41L148.558,238.474L148.213,238.538L147.867,238.6L147.521,238.662L147.174,238.722L146.828,238.781L146.481,238.839L146.133,238.896L145.785,238.952L145.437,239.007L145.089,239.061L144.74,239.114L144.39,239.166L144.04,239.216L143.691,239.266L143.341,239.314L142.99,239.362L142.639,239.408L142.288,239.453L141.936,239.498L141.584,239.541L141.233,239.583L140.88,239.624L140.527,239.663L140.174,239.702L139.821,239.74L139.467,239.776L139.113,239.812L138.759,239.846L138.404,239.879L138.049,239.911L137.694,239.942L137.339,239.972L136.983,240.001L136.627,240.029L136.27,240.055L135.913,240.081L135.557,240.105L135.2,240.128L134.842,240.15L134.484,240.171L134.126,240.191L133.768,240.21L133.409,240.228L133.051,240.244L132.691,240.26L132.332,240.274L131.972,240.287L131.612,240.299L131.253,240.31L130.892,240.319L130.531,240.328L130.171,240.336L129.809,240.342L129.448,240.347L129.086,240.351L128.725,240.354L128.362,240.356L128,240.356L127.638,240.356L127.275,240.354L126.914,240.351L126.552,240.347L126.191,240.342L125.829,240.336L125.469,240.328L125.108,240.319L124.747,240.31L124.388,240.299L124.028,240.287L123.668,240.274L123.309,240.26L122.949,240.244L122.591,240.228L122.232,240.21L121.874,240.191L121.516,240.171L121.158,240.15L120.8,240.128L120.443,240.105L120.087,240.081L119.73,240.055L119.373,240.029L119.017,240.001L118.661,239.972L118.306,239.942L117.951,239.911L117.596,239.879L117.241,239.846L116.887,239.812L116.533,239.776L116.179,239.74L115.826,239.702L115.473,239.663L115.12,239.624L114.767,239.583L114.416,239.541L114.064,239.498L113.712,239.453L113.361,239.408L113.01,239.362L112.659,239.314L112.309,239.266L111.96,239.216L111.61,239.166L111.261,239.114L110.911,239.061L110.563,239.007L110.215,238.952L109.867,238.896L109.519,238.839L109.172,238.781L108.826,238.722L108.479,238.662L108.133,238.6L107.787,238.538L107.442,238.474L107.096,238.41L106.752,238.344L106.407,238.278L106.064,238.21L105.72,238.141L105.376,238.072L105.033,238.001L104.691,237.929L104.349,237.856L104.008,237.782L103.666,237.707L103.325,237.631L102.984,237.554L102.644,237.476L102.305,237.397L101.965,237.317L101.626,237.236L101.287,237.154L100.949,237.071L100.612,236.987L100.274,236.901L99.937,236.815L99.6,236.728L99.264,236.64L98.928,236.55L98.592,236.46L98.258,236.369L97.923,236.276L97.589,236.183L97.255,236.089L96.922,235.994L96.589,235.897L96.256,235.8L95.924,235.702L95.593,235.602L95.261,235.502L94.93,235.401L94.6,235.298L94.27,235.195L93.941,235.091L93.611,234.986L93.282,234.879L92.954,234.772L92.627,234.664L92.3,234.555L91.973,234.445L91.647,234.334L91.32,234.222L90.995,234.109L90.67,233.995L90.345,233.88L90.021,233.764L89.697,233.647L89.374,233.529L89.052,233.41L88.729,233.291L88.407,233.17L88.086,233.048L87.765,232.925L87.445,232.802L87.125,232.678L86.806,232.552L86.486,232.425L86.168,232.298L85.85,232.17L85.533,232.041L85.216,231.911L84.899,231.779L84.583,231.647L84.268,231.514L83.952,231.38L83.638,231.246L83.324,231.11L83.01,230.973L82.697,230.836L82.384,230.697L82.073,230.558L81.761,230.417L81.45,230.276L81.139,230.134L80.829,229.991L80.52,229.847L80.211,229.702L79.903,229.556L79.594,229.409L79.287,229.262L78.98,229.113L78.674,228.964L78.368,228.813L78.062,228.662L77.758,228.51L77.454,228.357L77.15,228.203L76.846,228.048L76.544,227.893L76.242,227.736L75.94,227.579L75.639,227.42L75.338,227.261L75.039,227.101L74.739,226.94L74.44,226.778L74.142,226.616L73.844,226.452L73.547,226.288L73.25,226.122L72.954,225.956L72.658,225.789L72.364,225.621L72.069,225.453L71.775,225.283L71.482,225.112L71.189,224.941L70.897,224.769L70.606,224.596L70.314,224.422L70.024,224.247L69.734,224.072L69.445,223.895L69.156,223.718L68.868,223.54L68.581,223.361L68.294,223.181L68.007,223L67.721,222.819L67.436,222.637L67.151,222.454L66.868,222.27L66.584,222.085L66.301,221.899L66.019,221.713L65.737,221.526L65.456,221.337L65.176,221.149L64.896,220.959L64.617,220.768L64.338,220.577L64.06,220.385L63.783,220.192L63.506,219.998L63.229,219.804L62.954,219.608L62.679,219.412L62.405,219.215L62.131,219.017L61.858,218.819L61.586,218.62L61.314,218.419L61.043,218.219L60.772,218.017L60.502,217.814L60.233,217.611L59.964,217.407L59.696,217.202L59.428,216.996L59.162,216.79L58.895,216.582L58.63,216.374L58.365,216.166L58.101,215.956L57.837,215.746L57.575,215.535L57.312,215.323L57.051,215.11L56.79,214.897L56.529,214.683L56.27,214.468L56.011,214.252L55.753,214.036L55.495,213.818L55.238,213.6L54.981,213.382L54.726,213.162L54.471,212.942L54.216,212.721L53.963,212.499L53.71,212.277L53.457,212.054L53.206,211.83L52.955,211.605L52.705,211.38L52.455,211.153L52.206,210.926L51.958,210.699L51.71,210.47L51.463,210.241L51.217,210.011L50.972,209.781L50.727,209.55L50.483,209.318L50.239,209.085L49.996,208.851L49.755,208.617L49.513,208.383L49.273,208.147L49.033,207.91L48.794,207.674L48.555,207.436L48.317,207.197L48.08,206.958L47.844,206.718L47.608,206.478L47.373,206.236L47.139,205.995L46.906,205.752L46.673,205.508L46.441,205.264L46.21,205.02L45.979,204.774L45.749,204.528L45.52,204.281L45.292,204.034L45.064,203.785L44.837,203.537L44.611,203.287L44.385,203.037L44.161,202.786L43.937,202.534L43.713,202.282L43.491,202.029L43.269,201.776L43.048,201.521L42.828,201.266L42.608,201.011L42.389,200.754L42.171,200.497L41.954,200.24L41.738,199.982L41.522,199.723L41.307,199.463L41.093,199.203L40.879,198.942L40.667,198.68L40.455,198.418L40.244,198.155L40.033,197.892L39.824,197.627L39.615,197.363L39.407,197.097L39.199,196.831L38.993,196.564L38.787,196.297L38.582,196.029L38.378,195.76L38.175,195.491L37.972,195.221L37.77,194.95L37.57,194.68L37.369,194.408L37.17,194.135L36.971,193.862L36.773,193.589L36.576,193.314L36.38,193.039L36.185,192.764L35.99,192.488L35.796,192.211L35.603,191.934L35.411,191.656L35.22,191.377L35.029,191.098L34.839,190.818L34.651,190.538L34.462,190.257L34.275,189.975L34.089,189.693L33.903,189.41L33.718,189.127L33.534,188.843L33.351,188.558L33.169,188.273L32.987,187.987L32.807,187.701L32.627,187.414L32.448,187.126L32.27,186.838L32.092,186.549L31.916,186.26L31.74,185.97L31.566,185.68L31.392,185.389L31.219,185.098L31.046,184.806L30.875,184.513L30.704,184.219L30.535,183.926L30.366,183.631L30.198,183.336L30.031,183.041L29.865,182.745L29.699,182.448L29.535,182.151L29.371,181.853L29.209,181.555L29.047,181.256L28.886,180.957L28.726,180.657L28.566,180.356L28.408,180.055L28.25,179.754L28.094,179.452L27.938,179.149L27.783,178.846L27.63,178.542L27.476,178.238L27.324,177.933L27.173,177.628L27.023,177.322L26.873,177.016L26.725,176.709L26.577,176.401L26.43,176.093L26.284,175.785L26.139,175.476L25.995,175.167L25.852,174.857L25.71,174.546L25.569,174.235L25.428,173.924L25.289,173.612L25.15,173.299L25.013,172.986L24.876,172.672L24.74,172.359L24.605,172.044L24.471,171.729L24.338,171.414L24.206,171.098L24.075,170.781L23.945,170.464L23.816,170.147L23.687,169.829L23.56,169.51L23.434,169.191L23.308,168.872L23.184,168.552L23.06,168.232L22.937,167.911L22.816,167.59L22.695,167.268L22.575,166.946L22.456,166.623L22.338,166.3L22.221,165.976L22.105,165.652L21.99,165.327L21.876,165.002L21.763,164.677L21.651,164.351L21.54,164.025L21.43,163.698L21.321,163.371L21.213,163.043L21.106,162.715L20.999,162.386L20.894,162.057L20.79,161.728L20.686,161.398L20.584,161.068L20.483,160.737L20.383,160.406L20.283,160.074L20.185,159.742L20.088,159.409L19.991,159.077L19.896,158.743L19.802,158.409L19.708,158.075L19.616,157.741L19.525,157.406L19.434,157.07L19.345,156.735L19.257,156.398L19.169,156.062L19.083,155.725L18.998,155.387L18.914,155.05L18.831,154.711L18.748,154.373L18.667,154.034L18.587,153.694L18.508,153.355L18.43,153.014L18.353,152.674L18.277,152.333L18.202,151.992L18.128,151.65L18.055,151.308L17.983,150.965L17.913,150.622L17.843,150.279L17.774,149.936L17.706,149.592L17.64,149.247L17.574,148.903L17.51,148.558L17.446,148.212L17.384,147.867L17.322,147.521L17.262,147.174L17.203,146.827L17.145,146.48L17.088,146.133L17.032,145.785L16.977,145.437L16.923,145.088L16.87,144.739L16.818,144.39L16.768,144.041L16.718,143.691L16.67,143.34L16.622,142.99L16.576,142.639L16.531,142.288L16.486,141.937L16.443,141.585L16.401,141.233L16.36,140.88L16.32,140.527L16.282,140.174L16.244,139.821L16.208,139.467L16.172,139.113L16.138,138.759L16.105,138.405L16.072,138.05L16.041,137.695L16.012,137.339L15.983,136.983L15.955,136.627L15.928,136.271L15.903,135.914L15.879,135.558L15.855,135.2L15.833,134.843L15.812,134.485L15.792,134.127L15.774,133.769L15.756,133.41L15.739,133.052L15.724,132.692L15.71,132.333L15.697,131.974L15.685,131.614L15.674,131.254L15.664,130.893L15.656,130.533L15.648,130.172L15.642,129.811L15.637,129.449L15.633,129.088L15.63,128.726L15.628,128.364L15.628,128.002L15.628,127.639L15.63,127.277L15.633,126.915L15.637,126.554L15.642,126.193L15.648,125.831L15.656,125.471L15.664,125.11L15.674,124.75L15.685,124.39L15.697,124.03L15.71,123.67L15.724,123.311L15.739,122.952L15.756,122.593L15.774,122.234L15.792,121.876L15.812,121.518L15.833,121.161L15.855,120.803L15.879,120.446L15.903,120.089L15.928,119.732L15.955,119.376L15.983,119.02L16.012,118.664L16.041,118.309L16.072,117.954L16.105,117.599L16.138,117.244L16.172,116.89L16.208,116.536L16.244,116.182L16.282,115.829L16.32,115.476L16.36,115.123L16.401,114.771L16.443,114.419L16.486,114.067L16.531,113.715L16.576,113.364L16.622,113.013L16.67,112.663L16.718,112.313L16.768,111.963L16.818,111.613L16.87,111.264L16.923,110.915L16.977,110.567L17.032,110.219L17.088,109.871L17.145,109.523L17.203,109.176L17.262,108.829L17.323,108.483L17.384,108.137L17.446,107.791L17.51,107.446L17.574,107.101L17.64,106.756L17.706,106.412L17.774,106.068L17.843,105.724L17.913,105.381L17.983,105.038L18.055,104.696L18.128,104.354L18.202,104.012L18.277,103.671L18.353,103.33L18.43,102.989L18.508,102.649L18.587,102.309L18.667,101.97L18.748,101.631L18.831,101.292L18.914,100.954L18.998,100.616L19.083,100.279L19.169,99.942L19.257,99.605L19.345,99.269L19.434,98.933L19.525,98.597L19.616,98.263L19.708,97.928L19.802,97.594L19.896,97.26L19.991,96.927L20.088,96.594L20.185,96.261L20.283,95.929L20.383,95.598L20.483,95.266L20.584,94.936L20.686,94.605L20.79,94.275L20.894,93.946L20.999,93.617L21.106,93.288L21.213,92.96L21.321,92.633L21.43,92.305L21.54,91.978L21.651,91.652L21.763,91.326L21.876,91.001L21.991,90.676L22.105,90.351L22.221,90.027L22.338,89.704L22.456,89.38L22.575,89.058L22.695,88.735L22.816,88.414L22.937,88.092L23.06,87.772L23.184,87.451L23.308,87.131L23.434,86.812L23.56,86.493L23.687,86.175L23.816,85.857L23.945,85.539L24.075,85.222L24.206,84.906L24.338,84.59L24.471,84.274L24.605,83.959L24.74,83.645L24.876,83.331L25.013,83.017L25.15,82.704L25.289,82.392L25.428,82.08L25.569,81.768L25.71,81.457L25.852,81.147L25.995,80.837L26.139,80.527L26.284,80.218L26.43,79.91L26.577,79.602L26.725,79.294L26.873,78.988L27.023,78.681L27.173,78.375L27.324,78.07L27.476,77.765L27.629,77.461L27.783,77.158L27.938,76.854L28.094,76.552L28.251,76.25L28.408,75.948L28.566,75.647L28.726,75.347L28.886,75.047L29.047,74.747L29.209,74.448L29.371,74.15L29.535,73.853L29.699,73.555L29.865,73.259L30.031,72.963L30.198,72.667L30.366,72.372L30.535,72.078L30.704,71.784L30.875,71.491L31.046,71.198L31.219,70.906L31.392,70.614L31.566,70.323L31.74,70.033L31.916,69.743L32.092,69.454L32.27,69.165L32.448,68.877L32.627,68.589L32.807,68.303L32.987,68.016L33.169,67.731L33.351,67.445L33.534,67.161L33.718,66.877L33.903,66.593L34.089,66.311L34.275,66.028L34.462,65.747L34.651,65.466L34.839,65.185L35.029,64.906L35.22,64.626L35.411,64.348L35.603,64.07L35.796,63.792L35.99,63.516L36.185,63.24L36.38,62.964L36.576,62.689L36.773,62.415L36.971,62.141L37.17,61.868L37.369,61.596L37.569,61.324L37.77,61.053L37.972,60.782L38.175,60.512L38.378,60.243L38.582,59.974L38.787,59.706L38.993,59.439L39.199,59.172L39.407,58.906L39.615,58.641L39.824,58.376L40.033,58.112L40.244,57.848L40.455,57.585L40.667,57.323L40.879,57.062L41.093,56.801L41.307,56.54L41.522,56.281L41.738,56.022L41.954,55.764L42.171,55.506L42.389,55.249L42.608,54.993L42.828,54.737L43.048,54.482L43.269,54.228L43.491,53.974L43.713,53.721L43.937,53.469L44.16,53.217L44.385,52.966L44.611,52.716L44.837,52.467L45.064,52.218L45.292,51.97L45.52,51.722L45.749,51.475L45.979,51.229L46.21,50.984L46.441,50.739L46.673,50.495L46.906,50.251L47.139,50.009L47.373,49.767L47.608,49.526L47.844,49.285L48.08,49.045L48.317,48.806L48.555,48.568L48.794,48.33L49.033,48.093L49.273,47.856L49.513,47.621L49.755,47.386L49.997,47.152L50.239,46.918L50.483,46.686L50.727,46.454L50.972,46.222L51.217,45.992L51.463,45.762L51.71,45.533L51.958,45.305L52.206,45.077L52.455,44.85L52.704,44.624L52.955,44.398L53.206,44.174L53.457,43.95L53.71,43.727L53.963,43.504L54.216,43.282L54.471,43.061L54.726,42.841L54.981,42.622L55.238,42.403L55.495,42.185L55.752,41.968L56.011,41.751L56.27,41.536L56.529,41.321L56.79,41.107L57.051,40.893L57.312,40.681L57.575,40.469L57.837,40.258L58.101,40.047L58.365,39.838L58.63,39.629L58.896,39.421L59.162,39.214L59.429,39.007L59.696,38.802L59.964,38.597L60.233,38.392L60.502,38.189L60.772,37.987L61.043,37.785L61.314,37.584L61.586,37.384L61.858,37.184L62.131,36.986L62.405,36.788L62.679,36.591L62.954,36.395L63.23,36.2L63.506,36.005L63.783,35.811L64.06,35.618L64.338,35.426L64.617,35.235L64.896,35.044L65.176,34.855L65.456,34.666L65.737,34.478L66.019,34.29L66.301,34.104L66.584,33.918L66.868,33.734L67.152,33.55L67.436,33.367L67.721,33.184L68.007,33.003L68.293,32.822L68.58,32.642L68.868,32.463L69.156,32.285L69.445,32.108L69.734,31.932L70.024,31.756L70.314,31.581L70.606,31.407L70.897,31.234L71.189,31.062L71.482,30.891L71.775,30.72L72.069,30.551L72.364,30.382L72.659,30.214L72.954,30.047L73.25,29.881L73.547,29.716L73.844,29.551L74.142,29.388L74.44,29.225L74.739,29.063L75.039,28.902L75.339,28.742L75.639,28.583L75.94,28.425L76.242,28.267L76.544,28.111L76.846,27.955L77.15,27.8L77.453,27.646L77.758,27.493L78.063,27.341L78.368,27.19L78.674,27.04L78.98,26.89L79.287,26.742L79.594,26.594L79.902,26.447L80.211,26.301L80.52,26.157L80.829,26.013L81.14,25.869L81.45,25.727L81.761,25.586L82.073,25.446L82.385,25.306L82.697,25.168L83.01,25.03L83.324,24.893L83.638,24.758L83.952,24.623L84.267,24.489L84.583,24.356L84.899,24.224L85.216,24.093L85.533,23.963L85.85,23.833L86.168,23.705L86.487,23.578L86.806,23.451L87.125,23.326L87.445,23.201L87.765,23.078L88.086,22.955L88.407,22.834L88.729,22.713L89.052,22.593L89.374,22.474L89.697,22.356L90.021,22.239L90.345,22.124L90.67,22.009L90.995,21.895L91.32,21.782L91.646,21.67L91.973,21.558L92.3,21.448L92.627,21.339L92.955,21.231L93.283,21.124L93.611,21.018L93.94,20.912L94.27,20.808L94.6,20.705L94.93,20.603L95.261,20.501L95.592,20.401L95.924,20.302L96.256,20.203L96.589,20.106L96.921,20.01L97.255,19.915L97.589,19.82L97.923,19.727L98.257,19.635L98.593,19.543L98.928,19.453L99.264,19.364L99.6,19.275L99.937,19.188L100.274,19.102L100.611,19.017L100.949,18.933L101.287,18.849L101.626,18.767L101.965,18.686L102.305,18.606L102.644,18.527L102.985,18.449L103.325,18.372L103.666,18.296L104.007,18.221L104.349,18.147L104.691,18.074L105.034,18.002L105.377,17.932L105.72,17.862L106.064,17.793L106.408,17.726L106.752,17.659L107.097,17.593L107.442,17.529L107.787,17.465L108.133,17.403L108.479,17.342L108.825,17.281L109.172,17.222L109.519,17.164L109.867,17.107L110.215,17.051L110.563,16.996L110.912,16.942L111.261,16.889L111.61,16.838L111.959,16.787L112.309,16.737L112.659,16.689L113.01,16.642L113.361,16.595L113.712,16.55L114.064,16.506L114.415,16.463L114.768,16.421L115.12,16.38L115.473,16.34L115.826,16.301L116.179,16.264L116.533,16.227L116.887,16.192L117.241,16.157L117.596,16.124L117.951,16.092L118.306,16.061L118.662,16.031L119.017,16.002L119.373,15.975L119.73,15.948L120.086,15.923L120.443,15.898L120.801,15.875L121.158,15.853L121.516,15.832L121.874,15.812L122.232,15.793L122.591,15.776L122.95,15.759L123.309,15.744L123.668,15.729L124.028,15.716L124.388,15.704L124.748,15.694L125.108,15.684L125.469,15.675L125.83,15.668L126.191,15.662L126.552,15.656L126.914,15.652L127.276,15.649L127.638,15.648L128,15.647L128.362,15.648ZM127.685,30.709L127.371,30.711L127.057,30.713L126.743,30.717L126.429,30.721L126.116,30.727L125.803,30.733L125.49,30.74L125.177,30.749L124.865,30.758L124.553,30.769L124.241,30.78L123.929,30.792L123.618,30.806L123.306,30.82L122.996,30.835L122.685,30.852L122.374,30.869L122.064,30.887L121.754,30.906L121.445,30.926L121.135,30.948L120.826,30.97L120.517,30.993L120.209,31.017L119.901,31.042L119.593,31.067L119.285,31.094L118.977,31.122L118.67,31.151L118.363,31.181L118.056,31.211L117.75,31.243L117.444,31.276L117.138,31.309L116.833,31.344L116.527,31.379L116.222,31.415L115.918,31.453L115.613,31.491L115.309,31.53L115.005,31.57L114.702,31.611L114.399,31.653L114.096,31.696L113.793,31.74L113.491,31.785L113.189,31.831L112.887,31.877L112.586,31.925L112.285,31.973L111.984,32.023L111.683,32.073L111.383,32.124L111.083,32.176L110.784,32.229L110.484,32.283L110.186,32.338L109.887,32.394L109.589,32.451L109.291,32.509L108.993,32.567L108.696,32.626L108.399,32.687L108.102,32.748L107.806,32.81L107.51,32.873L107.214,32.937L106.919,33.002L106.624,33.068L106.329,33.134L106.035,33.202L105.741,33.27L105.447,33.34L105.154,33.41L104.861,33.481L104.568,33.553L104.276,33.626L103.984,33.699L103.692,33.774L103.401,33.849L103.11,33.926L102.82,34.003L102.53,34.081L102.24,34.16L101.95,34.24L101.661,34.321L101.373,34.402L101.084,34.485L100.796,34.568L100.509,34.652L100.221,34.737L99.935,34.823L99.648,34.91L99.362,34.997L99.076,35.086L98.791,35.175L98.506,35.265L98.221,35.356L97.937,35.448L97.653,35.541L97.369,35.635L97.086,35.729L96.803,35.824L96.521,35.92L96.239,36.017L95.958,36.115L95.676,36.214L95.396,36.313L95.115,36.413L94.835,36.514L94.556,36.616L94.276,36.719L93.998,36.823L93.719,36.927L93.441,37.033L93.164,37.139L92.886,37.246L92.61,37.353L92.333,37.462L92.057,37.571L91.782,37.681L91.507,37.792L91.232,37.904L90.958,38.017L90.684,38.13L90.41,38.244L90.137,38.36L89.865,38.475L89.593,38.592L89.321,38.71L89.049,38.828L88.779,38.947L88.508,39.067L88.238,39.187L87.968,39.309L87.699,39.431L87.431,39.554L87.162,39.678L86.894,39.803L86.627,39.928L86.36,40.054L86.093,40.181L85.827,40.309L85.562,40.438L85.297,40.567L85.032,40.697L84.767,40.828L84.504,40.96L84.24,41.092L83.977,41.225L83.715,41.359L83.453,41.494L83.191,41.629L82.93,41.766L82.67,41.903L82.409,42.041L82.15,42.179L81.891,42.319L81.632,42.459L81.373,42.6L81.116,42.741L80.858,42.884L80.601,43.027L80.345,43.171L80.089,43.315L79.834,43.461L79.579,43.607L79.324,43.754L79.07,43.901L78.817,44.05L78.564,44.199L78.311,44.349L78.059,44.499L77.808,44.65L77.557,44.802L77.306,44.955L77.056,45.109L76.807,45.263L76.557,45.418L76.309,45.574L76.061,45.73L75.813,45.887L75.566,46.045L75.32,46.204L75.074,46.363L74.828,46.523L74.583,46.684L74.339,46.846L74.095,47.008L73.851,47.171L73.608,47.334L73.366,47.499L73.124,47.664L72.883,47.829L72.642,47.996L72.401,48.163L72.162,48.331L71.922,48.499L71.684,48.669L71.445,48.839L71.208,49.009L70.97,49.181L70.734,49.353L70.498,49.526L70.262,49.699L70.027,49.873L69.793,50.048L69.559,50.223L69.325,50.4L69.093,50.576L68.86,50.754L68.629,50.932L68.397,51.111L68.167,51.291L67.937,51.471L67.707,51.652L67.478,51.834L67.25,52.016L67.022,52.199L66.795,52.382L66.568,52.567L66.342,52.752L66.116,52.937L65.891,53.124L65.667,53.311L65.443,53.498L65.219,53.686L64.997,53.875L64.774,54.065L64.553,54.255L64.332,54.446L64.111,54.637L63.892,54.83L63.672,55.022L63.454,55.216L63.235,55.41L63.018,55.605L62.801,55.8L62.585,55.996L62.369,56.193L62.154,56.39L61.939,56.588L61.725,56.787L61.512,56.986L61.299,57.186L61.087,57.386L60.875,57.587L60.664,57.789L60.454,57.991L60.244,58.194L60.035,58.398L59.826,58.602L59.618,58.807L59.411,59.013L59.204,59.219L58.998,59.425L58.793,59.633L58.588,59.841L58.383,60.049L58.18,60.258L57.977,60.468L57.774,60.678L57.573,60.889L57.372,61.101L57.171,61.313L56.971,61.526L56.772,61.739L56.573,61.953L56.375,62.167L56.178,62.383L55.981,62.598L55.785,62.815L55.59,63.032L55.395,63.249L55.201,63.467L55.007,63.686L54.814,63.905L54.622,64.125L54.431,64.345L54.24,64.566L54.05,64.788L53.86,65.01L53.671,65.233L53.483,65.456L53.295,65.68L53.108,65.904L52.922,66.129L52.736,66.355L52.551,66.581L52.367,66.808L52.183,67.035L52,67.263L51.818,67.491L51.636,67.72L51.455,67.949L51.275,68.18L51.095,68.41L50.916,68.641L50.738,68.873L50.56,69.105L50.384,69.338L50.207,69.571L50.032,69.805L49.857,70.04L49.683,70.275L49.509,70.51L49.337,70.746L49.164,70.983L48.993,71.22L48.822,71.457L48.652,71.696L48.483,71.934L48.315,72.174L48.147,72.413L47.979,72.654L47.813,72.894L47.647,73.136L47.482,73.378L47.318,73.62L47.154,73.863L46.991,74.106L46.829,74.35L46.667,74.595L46.507,74.84L46.346,75.085L46.187,75.331L46.028,75.578L45.871,75.825L45.713,76.072L45.557,76.32L45.401,76.569L45.246,76.818L45.092,77.067L44.938,77.317L44.785,77.568L44.633,77.819L44.482,78.07L44.331,78.322L44.181,78.575L44.032,78.828L43.884,79.081L43.736,79.335L43.589,79.589L43.443,79.844L43.298,80.1L43.153,80.356L43.009,80.612L42.866,80.869L42.724,81.126L42.582,81.384L42.441,81.642L42.301,81.901L42.162,82.16L42.023,82.42L41.885,82.68L41.748,82.94L41.612,83.201L41.476,83.463L41.341,83.725L41.207,83.987L41.074,84.25L40.942,84.513L40.81,84.777L40.679,85.041L40.549,85.306L40.42,85.571L40.291,85.837L40.163,86.103L40.036,86.369L39.91,86.636L39.785,86.904L39.66,87.171L39.536,87.44L39.413,87.708L39.291,87.978L39.169,88.247L39.049,88.517L38.929,88.787L38.81,89.058L38.691,89.33L38.574,89.601L38.457,89.873L38.341,90.146L38.226,90.419L38.112,90.692L37.998,90.966L37.886,91.24L37.774,91.515L37.663,91.79L37.553,92.066L37.443,92.342L37.335,92.618L37.227,92.895L37.12,93.172L37.014,93.449L36.909,93.727L36.804,94.006L36.701,94.284L36.598,94.563L36.496,94.843L36.395,95.123L36.294,95.403L36.195,95.684L36.096,95.965L35.999,96.247L35.902,96.529L35.805,96.811L35.71,97.094L35.616,97.377L35.522,97.66L35.429,97.944L35.338,98.228L35.247,98.513L35.156,98.798L35.067,99.083L34.979,99.369L34.891,99.655L34.804,99.941L34.718,100.228L34.633,100.515L34.549,100.803L34.466,101.091L34.383,101.379L34.302,101.668L34.221,101.957L34.141,102.246L34.062,102.536L33.984,102.826L33.907,103.117L33.83,103.407L33.755,103.699L33.68,103.99L33.607,104.282L33.534,104.574L33.462,104.867L33.391,105.16L33.32,105.453L33.251,105.747L33.183,106.041L33.115,106.335L33.049,106.629L32.983,106.924L32.918,107.22L32.854,107.515L32.791,107.811L32.729,108.107L32.668,108.404L32.607,108.701L32.548,108.998L32.489,109.296L32.432,109.594L32.375,109.892L32.319,110.191L32.264,110.489L32.21,110.789L32.157,111.088L32.105,111.388L32.054,111.688L32.003,111.988L31.954,112.289L31.905,112.59L31.858,112.892L31.811,113.193L31.765,113.495L31.721,113.797L31.677,114.1L31.634,114.403L31.592,114.706L31.551,115.009L31.511,115.313L31.471,115.617L31.433,115.922L31.396,116.226L31.36,116.531L31.324,116.836L31.29,117.142L31.256,117.448L31.223,117.754L31.192,118.06L31.161,118.367L31.131,118.673L31.103,118.981L31.075,119.288L31.048,119.596L31.022,119.904L30.997,120.212L30.973,120.521L30.95,120.829L30.928,121.138L30.907,121.448L30.887,121.757L30.867,122.067L30.849,122.377L30.832,122.688L30.816,122.998L30.8,123.309L30.786,123.62L30.773,123.932L30.76,124.243L30.749,124.555L30.739,124.867L30.729,125.18L30.721,125.492L30.713,125.805L30.707,126.118L30.701,126.431L30.697,126.745L30.693,127.059L30.691,127.373L30.69,127.687L30.689,128.002L30.69,128.316L30.691,128.63L30.693,128.945L30.697,129.258L30.701,129.572L30.707,129.885L30.713,130.198L30.721,130.511L30.729,130.824L30.739,131.136L30.749,131.448L30.76,131.76L30.773,132.072L30.786,132.383L30.8,132.694L30.816,133.005L30.832,133.316L30.849,133.626L30.867,133.936L30.887,134.246L30.907,134.556L30.928,134.865L30.95,135.174L30.973,135.483L30.997,135.791L31.022,136.1L31.048,136.408L31.075,136.715L31.103,137.023L31.131,137.33L31.161,137.637L31.192,137.943L31.223,138.25L31.256,138.556L31.29,138.862L31.324,139.167L31.36,139.472L31.396,139.777L31.433,140.082L31.471,140.386L31.511,140.69L31.551,140.994L31.592,141.297L31.634,141.6L31.677,141.903L31.721,142.206L31.765,142.508L31.811,142.81L31.858,143.112L31.905,143.413L31.954,143.714L32.003,144.015L32.054,144.315L32.105,144.615L32.157,144.915L32.21,145.215L32.264,145.514L32.319,145.813L32.375,146.111L32.432,146.41L32.489,146.707L32.548,147.005L32.607,147.302L32.668,147.599L32.729,147.896L32.791,148.192L32.854,148.488L32.918,148.784L32.983,149.079L33.049,149.374L33.115,149.669L33.183,149.963L33.251,150.257L33.32,150.55L33.391,150.844L33.462,151.137L33.534,151.429L33.607,151.721L33.68,152.013L33.755,152.305L33.83,152.596L33.907,152.887L33.984,153.177L34.062,153.467L34.141,153.757L34.221,154.046L34.302,154.335L34.383,154.624L34.466,154.912L34.549,155.2L34.633,155.488L34.718,155.775L34.804,156.062L34.891,156.348L34.979,156.635L35.067,156.92L35.156,157.206L35.247,157.491L35.338,157.775L35.429,158.059L35.522,158.343L35.616,158.627L35.71,158.91L35.805,159.192L35.902,159.475L35.999,159.757L36.096,160.038L36.195,160.319L36.294,160.6L36.395,160.88L36.496,161.16L36.598,161.44L36.701,161.719L36.804,161.998L36.909,162.276L37.014,162.554L37.12,162.832L37.227,163.109L37.335,163.385L37.443,163.662L37.553,163.938L37.663,164.213L37.774,164.488L37.886,164.763L37.998,165.037L38.112,165.311L38.226,165.584L38.341,165.857L38.457,166.13L38.574,166.402L38.691,166.674L38.81,166.945L38.929,167.216L39.049,167.486L39.169,167.756L39.291,168.026L39.413,168.295L39.536,168.564L39.66,168.832L39.785,169.1L39.91,169.367L40.036,169.634L40.163,169.9L40.291,170.167L40.42,170.432L40.549,170.697L40.679,170.962L40.81,171.226L40.942,171.49L41.074,171.753L41.207,172.016L41.341,172.279L41.476,172.541L41.612,172.802L41.748,173.063L41.885,173.324L42.023,173.584L42.162,173.843L42.301,174.103L42.441,174.361L42.582,174.62L42.724,174.877L42.866,175.135L43.009,175.391L43.153,175.648L43.298,175.904L43.443,176.159L43.589,176.414L43.736,176.668L43.884,176.922L44.032,177.176L44.181,177.429L44.331,177.681L44.482,177.933L44.633,178.185L44.785,178.436L44.938,178.686L45.092,178.936L45.246,179.186L45.401,179.435L45.557,179.683L45.713,179.931L45.871,180.179L46.028,180.426L46.187,180.672L46.346,180.918L46.507,181.164L46.667,181.409L46.829,181.653L46.991,181.897L47.154,182.14L47.318,182.383L47.482,182.626L47.647,182.868L47.813,183.109L47.979,183.35L48.147,183.59L48.315,183.83L48.483,184.069L48.652,184.308L48.822,184.546L48.993,184.784L49.164,185.021L49.337,185.257L49.509,185.493L49.683,185.729L49.857,185.964L50.032,186.198L50.207,186.432L50.384,186.665L50.56,186.898L50.738,187.13L50.916,187.362L51.095,187.593L51.275,187.824L51.455,188.054L51.636,188.283L51.818,188.512L52,188.741L52.183,188.968L52.367,189.196L52.551,189.422L52.736,189.649L52.922,189.874L53.108,190.099L53.295,190.324L53.483,190.547L53.671,190.771L53.86,190.993L54.05,191.216L54.24,191.437L54.431,191.658L54.622,191.878L54.814,192.098L55.007,192.318L55.201,192.536L55.395,192.754L55.59,192.972L55.785,193.189L55.981,193.405L56.178,193.621L56.375,193.836L56.573,194.05L56.772,194.264L56.971,194.478L57.171,194.69L57.372,194.903L57.573,195.114L57.774,195.325L57.977,195.535L58.18,195.745L58.383,195.954L58.588,196.163L58.793,196.371L58.998,196.578L59.204,196.785L59.411,196.991L59.618,197.196L59.826,197.401L60.035,197.605L60.244,197.809L60.454,198.012L60.664,198.214L60.875,198.416L61.087,198.617L61.299,198.818L61.512,199.017L61.725,199.217L61.939,199.415L62.154,199.613L62.369,199.81L62.585,200.007L62.801,200.203L63.018,200.399L63.235,200.593L63.454,200.787L63.672,200.981L63.892,201.174L64.111,201.366L64.332,201.557L64.553,201.748L64.774,201.938L64.997,202.128L65.219,202.317L65.443,202.505L65.667,202.693L65.891,202.88L66.116,203.066L66.342,203.252L66.568,203.437L66.795,203.621L67.022,203.805L67.25,203.987L67.478,204.17L67.707,204.351L67.937,204.532L68.167,204.713L68.397,204.892L68.629,205.071L68.86,205.249L69.093,205.427L69.325,205.604L69.559,205.78L69.793,205.955L70.027,206.13L70.262,206.304L70.498,206.478L70.734,206.651L70.97,206.823L71.208,206.994L71.445,207.165L71.684,207.335L71.922,207.504L72.162,207.672L72.401,207.84L72.642,208.007L72.883,208.174L73.124,208.34L73.366,208.505L73.608,208.669L73.851,208.833L74.095,208.996L74.339,209.158L74.583,209.319L74.828,209.48L75.074,209.64L75.32,209.799L75.566,209.958L75.813,210.116L76.061,210.273L76.309,210.43L76.557,210.585L76.807,210.74L77.056,210.895L77.306,211.048L77.557,211.201L77.808,211.353L78.059,211.504L78.311,211.655L78.564,211.805L78.817,211.954L79.07,212.102L79.324,212.25L79.579,212.397L79.834,212.543L80.089,212.688L80.345,212.833L80.601,212.977L80.858,213.12L81.116,213.262L81.373,213.404L81.632,213.545L81.891,213.685L82.15,213.824L82.409,213.963L82.67,214.101L82.93,214.238L83.191,214.374L83.453,214.509L83.715,214.644L83.977,214.778L84.24,214.911L84.504,215.044L84.767,215.175L85.032,215.306L85.297,215.436L85.562,215.566L85.827,215.694L86.093,215.822L86.36,215.949L86.627,216.075L86.894,216.201L87.162,216.325L87.431,216.449L87.699,216.572L87.968,216.694L88.238,216.816L88.508,216.937L88.779,217.056L89.049,217.176L89.321,217.294L89.593,217.411L89.865,217.528L90.137,217.644L90.41,217.759L90.684,217.873L90.958,217.987L91.232,218.099L91.507,218.211L91.782,218.322L92.057,218.432L92.333,218.542L92.61,218.65L92.886,218.758L93.164,218.865L93.441,218.971L93.719,219.076L93.998,219.18L94.276,219.284L94.556,219.387L94.835,219.489L95.115,219.59L95.396,219.69L95.676,219.79L95.958,219.888L96.239,219.986L96.521,220.083L96.803,220.179L97.086,220.274L97.369,220.369L97.653,220.462L97.937,220.555L98.221,220.647L98.506,220.738L98.791,220.828L99.076,220.917L99.362,221.006L99.648,221.094L99.935,221.18L100.221,221.266L100.509,221.351L100.796,221.435L101.084,221.519L101.373,221.601L101.661,221.683L101.95,221.763L102.24,221.843L102.53,221.922L102.82,222L103.11,222.078L103.401,222.154L103.692,222.229L103.984,222.304L104.276,222.378L104.568,222.451L104.861,222.522L105.154,222.594L105.447,222.664L105.741,222.733L106.035,222.801L106.329,222.869L106.624,222.936L106.919,223.001L107.214,223.066L107.51,223.13L107.806,223.193L108.102,223.255L108.399,223.317L108.696,223.377L108.993,223.436L109.291,223.495L109.589,223.552L109.887,223.609L110.186,223.665L110.484,223.72L110.784,223.774L111.083,223.827L111.383,223.879L111.683,223.93L111.984,223.981L112.285,224.03L112.586,224.079L112.887,224.126L113.189,224.173L113.491,224.218L113.793,224.263L114.096,224.307L114.399,224.35L114.702,224.392L115.005,224.433L115.309,224.473L115.613,224.512L115.918,224.551L116.222,224.588L116.527,224.624L116.833,224.66L117.138,224.694L117.444,224.728L117.75,224.76L118.056,224.792L118.363,224.823L118.67,224.852L118.977,224.881L119.285,224.909L119.593,224.936L119.901,224.962L120.209,224.987L120.517,225.011L120.826,225.034L121.135,225.056L121.445,225.077L121.754,225.097L122.064,225.116L122.374,225.134L122.685,225.152L122.996,225.168L123.306,225.183L123.618,225.198L123.929,225.211L124.241,225.223L124.553,225.235L124.865,225.245L125.177,225.254L125.49,225.263L125.803,225.27L126.116,225.277L126.429,225.282L126.743,225.287L127.057,225.29L127.371,225.293L127.685,225.294L128,225.295L128.315,225.294L128.629,225.293L128.943,225.29L129.257,225.287L129.571,225.282L129.884,225.277L130.197,225.27L130.51,225.263L130.823,225.254L131.135,225.245L131.447,225.235L131.759,225.223L132.071,225.211L132.382,225.198L132.694,225.183L133.004,225.168L133.315,225.152L133.626,225.134L133.936,225.116L134.246,225.097L134.555,225.077L134.865,225.056L135.174,225.034L135.483,225.011L135.791,224.987L136.099,224.962L136.407,224.936L136.715,224.909L137.023,224.881L137.33,224.852L137.637,224.823L137.944,224.792L138.25,224.76L138.556,224.728L138.862,224.694L139.167,224.66L139.473,224.624L139.778,224.588L140.082,224.551L140.387,224.512L140.691,224.473L140.995,224.433L141.298,224.392L141.601,224.35L141.904,224.307L142.207,224.263L142.509,224.218L142.811,224.173L143.113,224.126L143.414,224.079L143.715,224.03L144.016,223.981L144.317,223.93L144.617,223.879L144.917,223.827L145.216,223.774L145.516,223.72L145.814,223.665L146.113,223.609L146.411,223.552L146.709,223.495L147.007,223.436L147.304,223.377L147.601,223.317L147.898,223.255L148.194,223.193L148.49,223.13L148.786,223.066L149.081,223.001L149.376,222.936L149.671,222.869L149.965,222.801L150.259,222.733L150.553,222.664L150.846,222.594L151.139,222.522L151.432,222.451L151.724,222.378L152.016,222.304L152.308,222.229L152.599,222.154L152.89,222.078L153.18,222L153.47,221.922L153.76,221.843L154.05,221.763L154.339,221.683L154.627,221.601L154.916,221.519L155.204,221.435L155.491,221.351L155.779,221.266L156.066,221.18L156.352,221.094L156.638,221.006L156.924,220.917L157.209,220.828L157.494,220.738L157.779,220.647L158.063,220.555L158.347,220.462L158.631,220.369L158.914,220.274L159.197,220.179L159.479,220.083L159.761,219.986L160.042,219.888L160.324,219.79L160.604,219.69L160.885,219.59L161.165,219.489L161.444,219.387L161.724,219.284L162.002,219.18L162.281,219.076L162.559,218.971L162.836,218.865L163.114,218.758L163.39,218.65L163.667,218.542L163.943,218.432L164.218,218.322L164.493,218.211L164.768,218.099L165.042,217.987L165.316,217.873L165.59,217.759L165.863,217.644L166.135,217.528L166.407,217.411L166.679,217.294L166.951,217.176L167.221,217.056L167.492,216.937L167.762,216.816L168.032,216.694L168.301,216.572L168.569,216.449L168.838,216.325L169.106,216.201L169.373,216.075L169.64,215.949L169.907,215.822L170.173,215.694L170.438,215.566L170.703,215.436L170.968,215.306L171.233,215.175L171.496,215.044L171.76,214.911L172.023,214.778L172.285,214.644L172.547,214.509L172.809,214.374L173.07,214.238L173.33,214.101L173.591,213.963L173.85,213.824L174.109,213.685L174.368,213.545L174.627,213.404L174.884,213.262L175.142,213.12L175.399,212.977L175.655,212.833L175.911,212.688L176.166,212.543L176.421,212.397L176.676,212.25L176.93,212.102L177.183,211.954L177.436,211.805L177.689,211.655L177.941,211.504L178.192,211.353L178.443,211.201L178.694,211.048L178.944,210.895L179.193,210.74L179.443,210.585L179.691,210.43L179.939,210.273L180.187,210.116L180.434,209.958L180.68,209.799L180.926,209.64L181.172,209.48L181.417,209.319L181.661,209.158L181.905,208.996L182.149,208.833L182.392,208.669L182.634,208.505L182.876,208.34L183.117,208.174L183.358,208.007L183.599,207.84L183.838,207.672L184.078,207.504L184.316,207.335L184.555,207.165L184.792,206.994L185.03,206.823L185.266,206.651L185.502,206.478L185.738,206.304L185.973,206.13L186.207,205.955L186.441,205.78L186.675,205.604L186.907,205.427L187.14,205.249L187.371,205.071L187.603,204.892L187.833,204.713L188.063,204.532L188.293,204.351L188.522,204.17L188.75,203.987L188.978,203.805L189.205,203.621L189.432,203.437L189.658,203.252L189.884,203.066L190.109,202.88L190.333,202.693L190.557,202.505L190.781,202.317L191.003,202.128L191.226,201.938L191.447,201.748L191.668,201.557L191.889,201.366L192.108,201.174L192.328,200.981L192.546,200.787L192.765,200.593L192.982,200.399L193.199,200.203L193.415,200.007L193.631,199.81L193.846,199.613L194.061,199.415L194.275,199.217L194.488,199.017L194.701,198.818L194.913,198.617L195.125,198.416L195.336,198.214L195.546,198.012L195.756,197.809L195.965,197.605L196.174,197.401L196.382,197.196L196.589,196.991L196.796,196.785L197.002,196.578L197.207,196.371L197.412,196.163L197.617,195.954L197.82,195.745L198.023,195.535L198.226,195.325L198.427,195.114L198.628,194.903L198.829,194.69L199.029,194.478L199.228,194.264L199.427,194.05L199.625,193.836L199.822,193.621L200.019,193.405L200.215,193.189L200.41,192.972L200.605,192.754L200.799,192.536L200.993,192.318L201.186,192.098L201.378,191.878L201.569,191.658L201.76,191.437L201.951,191.216L202.14,190.993L202.329,190.771L202.517,190.547L202.705,190.324L202.892,190.099L203.078,189.874L203.264,189.649L203.449,189.422L203.633,189.196L203.817,188.968L204,188.741L204.182,188.512L204.364,188.283L204.545,188.054L204.725,187.824L204.905,187.593L205.084,187.362L205.262,187.13L205.44,186.898L205.616,186.665L205.793,186.432L205.968,186.198L206.143,185.964L206.317,185.729L206.491,185.493L206.663,185.257L206.836,185.021L207.007,184.784L207.178,184.546L207.348,184.308L207.517,184.069L207.685,183.83L207.853,183.59L208.021,183.35L208.187,183.109L208.353,182.868L208.518,182.626L208.682,182.383L208.846,182.14L209.009,181.897L209.171,181.653L209.333,181.409L209.493,181.164L209.654,180.918L209.813,180.672L209.972,180.426L210.129,180.179L210.287,179.931L210.443,179.683L210.599,179.435L210.754,179.186L210.908,178.936L211.062,178.686L211.215,178.436L211.367,178.185L211.518,177.933L211.669,177.681L211.819,177.429L211.968,177.176L212.116,176.922L212.264,176.668L212.411,176.414L212.557,176.159L212.702,175.904L212.847,175.648L212.991,175.391L213.134,175.135L213.276,174.877L213.418,174.62L213.559,174.361L213.699,174.103L213.838,173.843L213.977,173.584L214.115,173.324L214.252,173.063L214.388,172.802L214.524,172.541L214.659,172.279L214.793,172.016L214.926,171.753L215.058,171.49L215.19,171.226L215.321,170.962L215.451,170.697L215.58,170.432L215.709,170.167L215.837,169.9L215.964,169.634L216.09,169.367L216.215,169.1L216.34,168.832L216.464,168.564L216.587,168.295L216.709,168.026L216.831,167.756L216.951,167.486L217.071,167.216L217.19,166.945L217.309,166.674L217.426,166.402L217.543,166.13L217.659,165.857L217.774,165.584L217.888,165.311L218.002,165.037L218.114,164.763L218.226,164.488L218.337,164.213L218.447,163.938L218.557,163.662L218.665,163.385L218.773,163.109L218.88,162.832L218.986,162.554L219.091,162.276L219.196,161.998L219.299,161.719L219.402,161.44L219.504,161.16L219.605,160.88L219.706,160.6L219.805,160.319L219.904,160.038L220.001,159.757L220.098,159.475L220.195,159.192L220.29,158.91L220.384,158.627L220.478,158.343L220.571,158.059L220.662,157.775L220.753,157.491L220.844,157.206L220.933,156.92L221.021,156.635L221.109,156.348L221.196,156.062L221.282,155.775L221.367,155.488L221.451,155.2L221.534,154.912L221.617,154.624L221.698,154.335L221.779,154.046L221.859,153.757L221.938,153.467L222.016,153.177L222.093,152.887L222.17,152.596L222.245,152.305L222.32,152.013L222.393,151.721L222.466,151.429L222.538,151.137L222.609,150.844L222.68,150.55L222.749,150.257L222.817,149.963L222.885,149.669L222.951,149.374L223.017,149.079L223.082,148.784L223.146,148.488L223.209,148.192L223.271,147.896L223.333,147.599L223.393,147.302L223.452,147.005L223.511,146.707L223.568,146.41L223.625,146.111L223.681,145.813L223.736,145.514L223.79,145.215L223.843,144.915L223.895,144.615L223.946,144.315L223.997,144.015L224.046,143.714L224.095,143.413L224.142,143.112L224.189,142.81L224.235,142.508L224.279,142.206L224.323,141.903L224.366,141.6L224.408,141.297L224.449,140.994L224.489,140.69L224.529,140.386L224.567,140.082L224.604,139.777L224.64,139.472L224.676,139.167L224.71,138.862L224.744,138.556L224.777,138.25L224.808,137.943L224.839,137.637L224.869,137.33L224.897,137.023L224.925,136.715L224.952,136.408L224.978,136.1L225.003,135.791L225.027,135.483L225.05,135.174L225.072,134.865L225.093,134.556L225.113,134.246L225.133,133.936L225.151,133.626L225.168,133.316L225.184,133.005L225.2,132.694L225.214,132.383L225.227,132.072L225.24,131.76L225.251,131.448L225.261,131.136L225.271,130.824L225.279,130.511L225.287,130.198L225.293,129.885L225.299,129.572L225.303,129.258L225.307,128.945L225.309,128.63L225.31,128.316L225.311,128.002L225.31,127.687L225.309,127.373L225.307,127.059L225.303,126.745L225.299,126.431L225.293,126.118L225.287,125.805L225.279,125.492L225.271,125.18L225.261,124.867L225.251,124.555L225.24,124.243L225.227,123.932L225.214,123.62L225.2,123.309L225.184,122.998L225.168,122.688L225.151,122.377L225.133,122.067L225.113,121.757L225.093,121.448L225.072,121.138L225.05,120.829L225.027,120.521L225.003,120.212L224.978,119.904L224.952,119.596L224.925,119.288L224.897,118.981L224.869,118.673L224.839,118.367L224.808,118.06L224.777,117.754L224.744,117.448L224.71,117.142L224.676,116.836L224.64,116.531L224.604,116.226L224.567,115.922L224.529,115.617L224.489,115.313L224.449,115.009L224.408,114.706L224.366,114.403L224.323,114.1L224.279,113.797L224.235,113.495L224.189,113.193L224.142,112.892L224.095,112.59L224.046,112.289L223.997,111.988L223.946,111.688L223.895,111.388L223.843,111.088L223.79,110.789L223.736,110.489L223.681,110.191L223.625,109.892L223.568,109.594L223.511,109.296L223.452,108.998L223.393,108.701L223.333,108.404L223.271,108.107L223.209,107.811L223.146,107.515L223.082,107.22L223.017,106.924L222.951,106.629L222.885,106.335L222.817,106.041L222.749,105.747L222.68,105.453L222.609,105.16L222.538,104.867L222.466,104.574L222.393,104.282L222.32,103.99L222.245,103.699L222.17,103.407L222.093,103.117L222.016,102.826L221.938,102.536L221.859,102.246L221.779,101.957L221.698,101.668L221.617,101.379L221.534,101.091L221.451,100.803L221.367,100.515L221.282,100.228L221.196,99.941L221.109,99.655L221.021,99.369L220.933,99.083L220.844,98.798L220.753,98.513L220.662,98.228L220.571,97.944L220.478,97.66L220.384,97.377L220.29,97.094L220.195,96.811L220.098,96.529L220.001,96.247L219.904,95.965L219.805,95.684L219.706,95.403L219.605,95.123L219.504,94.843L219.402,94.563L219.299,94.284L219.196,94.006L219.091,93.727L218.986,93.449L218.88,93.172L218.773,92.895L218.665,92.618L218.557,92.342L218.447,92.066L218.337,91.79L218.226,91.515L218.114,91.24L218.002,90.966L217.888,90.692L217.774,90.419L217.659,90.146L217.543,89.873L217.426,89.601L217.309,89.33L217.19,89.058L217.071,88.787L216.951,88.517L216.831,88.247L216.709,87.978L216.587,87.708L216.464,87.44L216.34,87.171L216.215,86.904L216.09,86.636L215.964,86.369L215.837,86.103L215.709,85.837L215.58,85.571L215.451,85.306L215.321,85.041L215.19,84.777L215.058,84.513L214.926,84.25L214.793,83.987L214.659,83.725L214.524,83.463L214.388,83.201L214.252,82.94L214.115,82.68L213.977,82.42L213.838,82.16L213.699,81.901L213.559,81.642L213.418,81.384L213.276,81.126L213.134,80.869L212.991,80.612L212.847,80.356L212.702,80.1L212.557,79.844L212.411,79.589L212.264,79.335L212.116,79.081L211.968,78.828L211.819,78.575L211.669,78.322L211.518,78.07L211.367,77.819L211.215,77.568L211.062,77.317L210.908,77.067L210.754,76.818L210.599,76.569L210.443,76.32L210.287,76.072L210.129,75.825L209.972,75.578L209.813,75.331L209.654,75.085L209.493,74.84L209.333,74.595L209.171,74.35L209.009,74.106L208.846,73.863L208.682,73.62L208.518,73.378L208.353,73.136L208.187,72.894L208.021,72.654L207.853,72.413L207.685,72.174L207.517,71.934L207.348,71.696L207.178,71.457L207.007,71.22L206.836,70.983L206.663,70.746L206.491,70.51L206.317,70.275L206.143,70.04L205.968,69.805L205.793,69.571L205.616,69.338L205.44,69.105L205.262,68.873L205.084,68.641L204.905,68.41L204.725,68.18L204.545,67.949L204.364,67.72L204.182,67.491L204,67.263L203.817,67.035L203.633,66.808L203.449,66.581L203.264,66.355L203.078,66.129L202.892,65.904L202.705,65.68L202.517,65.456L202.329,65.233L202.14,65.01L201.951,64.788L201.76,64.566L201.569,64.345L201.378,64.125L201.186,63.905L200.993,63.686L200.799,63.467L200.605,63.249L200.41,63.032L200.215,62.815L200.019,62.598L199.822,62.383L199.625,62.167L199.427,61.953L199.228,61.739L199.029,61.526L198.829,61.313L198.628,61.101L198.427,60.889L198.226,60.678L198.023,60.468L197.82,60.258L197.617,60.049L197.412,59.841L197.207,59.633L197.002,59.425L196.796,59.219L196.589,59.013L196.382,58.807L196.174,58.602L195.965,58.398L195.756,58.194L195.546,57.991L195.336,57.789L195.125,57.587L194.913,57.386L194.701,57.186L194.488,56.986L194.275,56.787L194.061,56.588L193.846,56.39L193.631,56.193L193.415,55.996L193.199,55.8L192.982,55.605L192.765,55.41L192.546,55.216L192.328,55.022L192.108,54.83L191.889,54.637L191.668,54.446L191.447,54.255L191.226,54.065L191.003,53.875L190.781,53.686L190.557,53.498L190.333,53.311L190.109,53.124L189.884,52.937L189.658,52.752L189.432,52.567L189.205,52.382L188.978,52.199L188.75,52.016L188.522,51.834L188.293,51.652L188.063,51.471L187.833,51.291L187.603,51.111L187.371,50.932L187.14,50.754L186.907,50.576L186.675,50.4L186.441,50.223L186.207,50.048L185.973,49.873L185.738,49.699L185.502,49.526L185.266,49.353L185.03,49.181L184.792,49.009L184.555,48.839L184.316,48.669L184.078,48.499L183.838,48.331L183.599,48.163L183.358,47.996L183.117,47.829L182.876,47.664L182.634,47.499L182.392,47.334L182.149,47.171L181.905,47.008L181.661,46.846L181.417,46.684L181.172,46.523L180.926,46.363L180.68,46.204L180.434,46.045L180.187,45.887L179.939,45.73L179.691,45.574L179.443,45.418L179.193,45.263L178.944,45.109L178.694,44.955L178.443,44.802L178.192,44.65L177.941,44.499L177.689,44.349L177.436,44.199L177.183,44.05L176.93,43.901L176.676,43.754L176.421,43.607L176.166,43.461L175.911,43.315L175.655,43.171L175.399,43.027L175.142,42.884L174.884,42.741L174.627,42.6L174.368,42.459L174.109,42.319L173.85,42.179L173.591,42.041L173.33,41.903L173.07,41.766L172.809,41.629L172.547,41.494L172.285,41.359L172.023,41.225L171.76,41.092L171.496,40.96L171.233,40.828L170.968,40.697L170.703,40.567L170.438,40.438L170.173,40.309L169.907,40.181L169.64,40.054L169.373,39.928L169.106,39.803L168.838,39.678L168.569,39.554L168.301,39.431L168.032,39.309L167.762,39.187L167.492,39.067L167.221,38.947L166.951,38.828L166.679,38.71L166.407,38.592L166.135,38.475L165.863,38.36L165.59,38.244L165.316,38.13L165.042,38.017L164.768,37.904L164.493,37.792L164.218,37.681L163.943,37.571L163.667,37.462L163.39,37.353L163.114,37.246L162.836,37.139L162.559,37.033L162.281,36.927L162.002,36.823L161.724,36.719L161.444,36.616L161.165,36.514L160.885,36.413L160.604,36.313L160.324,36.214L160.042,36.115L159.761,36.017L159.479,35.92L159.197,35.824L158.914,35.729L158.631,35.635L158.347,35.541L158.063,35.448L157.779,35.356L157.494,35.265L157.209,35.175L156.924,35.086L156.638,34.997L156.352,34.91L156.066,34.823L155.779,34.737L155.491,34.652L155.204,34.568L154.916,34.485L154.627,34.402L154.339,34.321L154.05,34.24L153.76,34.16L153.47,34.081L153.18,34.003L152.89,33.926L152.599,33.849L152.308,33.774L152.016,33.699L151.724,33.626L151.432,33.553L151.139,33.481L150.846,33.41L150.553,33.34L150.259,33.27L149.965,33.202L149.671,33.134L149.376,33.068L149.081,33.002L148.786,32.937L148.49,32.873L148.194,32.81L147.898,32.748L147.601,32.687L147.304,32.626L147.007,32.567L146.709,32.509L146.411,32.451L146.113,32.394L145.814,32.338L145.516,32.283L145.216,32.229L144.917,32.176L144.617,32.124L144.317,32.073L144.016,32.023L143.715,31.973L143.414,31.925L143.113,31.877L142.811,31.831L142.509,31.785L142.207,31.74L141.904,31.696L141.601,31.653L141.298,31.611L140.995,31.57L140.691,31.53L140.387,31.491L140.082,31.453L139.778,31.415L139.473,31.379L139.167,31.344L138.862,31.309L138.556,31.276L138.25,31.243L137.944,31.211L137.637,31.181L137.33,31.151L137.023,31.122L136.715,31.094L136.407,31.067L136.099,31.042L135.791,31.017L135.483,30.993L135.174,30.97L134.865,30.948L134.555,30.926L134.246,30.906L133.936,30.887L133.626,30.869L133.315,30.852L133.004,30.835L132.694,30.82L132.382,30.806L132.071,30.792L131.759,30.78L131.447,30.769L131.135,30.758L130.823,30.749L130.51,30.74L130.197,30.733L129.884,30.727L129.571,30.721L129.257,30.717L128.943,30.713L128.629,30.711L128.315,30.709L128,30.709L127.685,30.709Z"/>
    </g>
</svg>
